Introdução à R e Python - 3 Manipulação de dados
…
gapminder_character <- gapminder %>% 
  select(where(is.character))

3.5.2 arrange

O verbo arrange() é usado para reorganizar as linhas de um conjunto de dados com base nos valores de uma ou mais colunas. Quando aplicado a um conjunto de dados, o arrange() classifica as linhas em ordem crescente ou decrescente com base nos valores das colunas especificadas.

No primeiro exemplo usando o verbo select(), podemos ordenar os dados por país em ordem alfabética, podemos fazer assim:

gapminder %>%
  select(year, country, lifeExp, gdpPercap, pop) %>%
  arrange(country)

# A tibble: 1,704 × 5
    year country     lifeExp gdpPercap      pop
   <int> <fct>         <dbl>     <dbl>    <int>
 1  1952 Afghanistan    28.8      779.  8425333
 2  1957 Afghanistan    30.3      821.  9240934
 3  1962 Afghanistan    32.0      853. 10267083
 4  1967 Afghanistan    34.0      836. 11537966
 5  1972 Afghanistan    36.1      740. 13079460
 6  1977 Afghanistan    38.4      786. 14880372
 7  1982 Afghanistan    39.9      978. 12881816
 8  1987 Afghanistan    40.8      852. 13867957
 9  1992 Afghanistan    41.7      649. 16317921
10  1997 Afghanistan    41.8      635. 22227415
# ℹ 1,694 more rows

No exemplo abaixo, estamos organizando de acordo com o ano em ordem crescente e a expectativa de vida em ordem decrescente dentro de cada ano.

gapminder %>%
  select(year, country, lifeExp, gdpPercap, pop) %>%
  arrange(year, desc(lifeExp))

# A tibble: 1,704 × 5
    year country        lifeExp gdpPercap      pop
   <int> <fct>            <dbl>     <dbl>    <int>
 1  1952 Norway            72.7    10095.  3327728
 2  1952 Iceland           72.5     7268.   147962
 3  1952 Netherlands       72.1     8942. 10381988
 4  1952 Sweden            71.9     8528.  7124673
 5  1952 Denmark           70.8     9692.  4334000
 6  1952 Switzerland       69.6    14734.  4815000
 7  1952 New Zealand       69.4    10557.  1994794
 8  1952 United Kingdom    69.2     9980. 50430000
 9  1952 Australia         69.1    10040.  8691212
10  1952 Canada            68.8    11367. 14785584
# ℹ 1,694 more rows

Dica

Ao utilizar o verbo select() com o prefixo -, você pode especificar as colunas que deseja excluir do conjunto de dados. No exemplo abaixo, vamos excluir a coluna continent da seleção no conjunto de dados.

gapminder %>% 
  select(-continent)

# A tibble: 1,704 × 5
   country      year lifeExp      pop gdpPercap
   <fct>       <int>   <dbl>    <int>     <dbl>
 1 Afghanistan  1952    28.8  8425333      779.
 2 Afghanistan  1957    30.3  9240934      821.
 3 Afghanistan  1962    32.0 10267083      853.
 4 Afghanistan  1967    34.0 11537966      836.
 5 Afghanistan  1972    36.1 13079460      740.
 6 Afghanistan  1977    38.4 14880372      786.
 7 Afghanistan  1982    39.9 12881816      978.
 8 Afghanistan  1987    40.8 13867957      852.
 9 Afghanistan  1992    41.7 16317921      649.
10 Afghanistan  1997    41.8 22227415      635.
# ℹ 1,694 more rows

3.5.3 filter

Para analisar dados específicos de interesse, muitas vezes é necessário filtrar o conjunto de dados para incluir apenas as observações relevantes. O verbo filter() é usado para fazer isso. Basta definir uma ou mais condições lógicas que as linhas da base de dados devem satisfazer para serem mostradas.

No exemplo abaixo, estamos filtrando os dados para incluir apenas as observações onde o país é “Brasil” ou “Argentina”.

gapminder %>%
  select(year, country, lifeExp, gdpPercap, pop) %>%
  arrange(year, desc(lifeExp)) %>% 
  filter(country == "Brazil" | country == "Argentina")

# A tibble: 24 × 5
    year country   lifeExp gdpPercap       pop
   <int> <fct>       <dbl>     <dbl>     <int>
 1  1952 Argentina    62.5     5911.  17876956
 2  1952 Brazil       50.9     2109.  56602560
 3  1957 Argentina    64.4     6857.  19610538
 4  1957 Brazil       53.3     2487.  65551171
 5  1962 Argentina    65.1     7133.  21283783
 6  1962 Brazil       55.7     3337.  76039390
 7  1967 Argentina    65.6     8053.  22934225
 8  1967 Brazil       57.6     3430.  88049823
 9  1972 Argentina    67.1     9443.  24779799
10  1972 Brazil       59.5     4986. 100840058
# ℹ 14 more rows
…
gapminder_united <- gapminder %>% 
  unite("country_continent", c(country, continent),
        sep = "_",
        remove = TRUE,
        na.rm = FALSE)

gapminder_united %>%
  separate_wider_delim(country_continent,
                       delim = "_",
                       names = c("country", "continent"))

# A tibble: 1,704 × 6
   country     continent  year lifeExp      pop gdpPercap
   <chr>       <chr>     <int>   <dbl>    <int>     <dbl>
 1 Afghanistan Asia       1952    28.8  8425333      779.
 2 Afghanistan Asia       1957    30.3  9240934      821.
 3 Afghanistan Asia       1962    32.0 10267083      853.
 4 Afghanistan Asia       1967    34.0 11537966      836.
 5 Afghanistan Asia       1972    36.1 13079460      740.
 6 Afghanistan Asia       1977    38.4 14880372      786.
 7 Afghanistan Asia       1982    39.9 12881816      978.
 8 Afghanistan Asia       1987    40.8 13867957      852.
 9 Afghanistan Asia       1992    41.7 16317921      649.
10 Afghanistan Asia       1997    41.8 22227415      635.
# ℹ 1,694 more rows

3.7 Exercícios

Vamos trabalhar com o conjunto de dados billboard. Neste conjunto de dados, cada observação é uma música. As três primeiras colunas (artista, faixa e data de entrada) são variáveis que descrevem a música. Em seguida, temos 76 colunas (wk1-wk76) que descrevem o ranking da música em cada semana. Aqui, os nomes das colunas são uma variável (a semana) e os valores das células são outra (o ranking).

library(tidyverse)
billboard

# A tibble: 317 × 79
   artist     track date.entered   wk1   wk2   wk3   wk4   wk5   wk6   wk7   wk8
   <chr>      <chr> <date>       <dbl> <dbl> <dbl> <dbl> <dbl> <dbl> <dbl> <dbl>
 1 2 Pac      Baby… 2000-02-26      87    82    72    77    87    94    99    NA
 2 2Ge+her    The … 2000-09-02      91    87    92    NA    NA    NA    NA    NA
 3 3 Doors D… Kryp… 2000-04-08      81    70    68    67    66    57    54    53
 4 3 Doors D… Loser 2000-10-21      76    76    72    69    67    65    55    59
 5 504 Boyz   Wobb… 2000-04-15      57    34    25    17    17    31    36    49
 6 98^0       Give… 2000-08-19      51    39    34    26    26    19     2     2
 7 A*Teens    Danc… 2000-07-08      97    97    96    95   100    NA    NA    NA
 8 Aaliyah    I Do… 2000-01-29      84    62    51    41    38    35    35    38
 9 Aaliyah    Try … 2000-03-18      59    53    38    28    21    18    16    14
10 Adams, Yo… Open… 2000-08-26      76    76    74    69    68    67    61    58
# ℹ 307 more rows
# ℹ 68 more variables: wk9 <dbl>, wk10 <dbl>, wk11 <dbl>, wk12 <dbl>,
#   wk13 <dbl>, wk14 <dbl>, wk15 <dbl>, wk16 <dbl>, wk17 <dbl>, wk18 <dbl>,
#   wk19 <dbl>, wk20 <dbl>, wk21 <dbl>, wk22 <dbl>, wk23 <dbl>, wk24 <dbl>,
#   wk25 <dbl>, wk26 <dbl>, wk27 <dbl>, wk28 <dbl>, wk29 <dbl>, wk30 <dbl>,
#   wk31 <dbl>, wk32 <dbl>, wk33 <dbl>, wk34 <dbl>, wk35 <dbl>, wk36 <dbl>,
#   wk37 <dbl>, wk38 <dbl>, wk39 <dbl>, wk40 <dbl>, wk41 <dbl>, wk42 <dbl>, …

a) Aplique uma tranformação na base de dados para deixá-la no formato abaixo.

# A tibble: 24,092 × 5
   artist track                   date.entered week   rank
   <chr>  <chr>                   <date>       <chr> <dbl>
 1 2 Pac  Baby Don't Cry (Keep... 2000-02-26   wk1      87
 2 2 Pac  Baby Don't Cry (Keep... 2000-02-26   wk2      82
 3 2 Pac  Baby Don't Cry (Keep... 2000-02-26   wk3      72
 4 2 Pac  Baby Don't Cry (Keep... 2000-02-26   wk4      77
 5 2 Pac  Baby Don't Cry (Keep... 2000-02-26   wk5      87
 6 2 Pac  Baby Don't Cry (Keep... 2000-02-26   wk6      94
 7 2 Pac  Baby Don't Cry (Keep... 2000-02-26   wk7      99
 8 2 Pac  Baby Don't Cry (Keep... 2000-02-26   wk8      NA
 9 2 Pac  Baby Don't Cry (Keep... 2000-02-26   wk9      NA
10 2 Pac  Baby Don't Cry (Keep... 2000-02-26   wk10     NA
# ℹ 24,082 more rows
…
